…
-   `count()`: count unique values of one or more variables.

-   `group_by()`: perform calculations separately for each value of a variable

## `select()`

-   Demo: Make a data frame that only contains the variables `score` and `cls_students`.

<!-- -->

    evals |>
      select(score, cls_students)

    # A tibble: 463 × 2
       score cls_students
       <dbl>        <dbl>
     1   4.7           43
     2   4.1          125
     3   3.9          125
     4   4.8          123
     5   4.6           20
     6   4.3           40
     7   2.8           44
     8   4.1           55
     9   3.4          195
    10   4.5           46
    # … with 453 more rows

-   Demo: Make a data frame that keeps every variable except `cls_students`.

<!-- -->

    evals |>
      select(-cls_students)

    # A tibble: 463 × 22
       course_id prof_id score rank     ethni…¹ gender langu…²   age cls_p…³ cls_d…⁴
           <dbl>   <dbl> <dbl> <chr>    <chr>   <chr>  <chr>   <dbl>   <dbl>   <dbl>
     1         1       1   4.7 tenure … minori… female english    36    55.8      24
     2         2       1   4.1 tenure … minori… female english    36    68.8      86
     3         3       1   3.9 tenure … minori… female english    36    60.8      76
     4         4       1   4.8 tenure … minori… female english    36    62.6      77
     5         5       2   4.6 tenured  not mi… male   english    59    85        17
     6         6       2   4.3 tenured  not mi… male   english    59    87.5      35
     7         7       2   2.8 tenured  not mi… male   english    59    88.6      39
     8         8       3   4.1 tenured  not mi… male   english    51   100        55
     9         9       3   3.4 tenured  not mi… male   english    51    56.9     111
    10        10       4   4.5 tenured  not mi… female english    40    87.0      40
    # … with 453 more rows, 12 more variables: cls_level <chr>, cls_profs <chr>,
    #   cls_credits <chr>, bty_f1lower <dbl>, bty_f1upper <dbl>, bty_f2upper <dbl>,
    #   bty_m1lower <dbl>, bty_m1upper <dbl>, bty_m2upper <dbl>, bty_avg <dbl>,
    #   pic_outfit <chr>, pic_color <chr>, and abbreviated variable names
    #   ¹​ethnicity, ²​language, ³​cls_perc_eval, ⁴​cls_did_eval

-   Demo: Make a data frame that includes all variables between `score` through `age` (inclusive).

<!-- -->

    evals |>
      select(score:age)

    # A tibble: 463 × 6
       score rank         ethnicity    gender language   age
       <dbl> <chr>        <chr>        <chr>  <chr>    <dbl>
     1   4.7 tenure track minority     female english     36
     2   4.1 tenure track minority     female english     36
     3   3.9 tenure track minority     female english     36
     4   4.8 tenure track minority     female english     36
     5   4.6 tenured      not minority male   english     59
     6   4.3 tenured      not minority male   english     59
     7   2.8 tenured      not minority male   english     59
     8   4.1 tenured      not minority male   english     51
     9   3.4 tenured      not minority male   english     51
    10   4.5 tenured      not minority female english     40
    # … with 453 more rows

-   Demo: Use the `select` helper `contains()` to make a data frame that includes the variables associated with the class, i.e., contains the string `"cls\_"` in the name.

<!-- -->

    evals |>
      select(contains("cls_"))

    # A tibble: 463 × 6
       cls_perc_eval cls_did_eval cls_students cls_level cls_profs cls_credits 
               <dbl>        <dbl>        <dbl> <chr>     <chr>     <chr>       
     1          55.8           24           43 upper     single    multi credit
     2          68.8           86          125 upper     single    multi credit
     3          60.8           76          125 upper     single    multi credit
     4          62.6           77          123 upper     single    multi credit
     5          85             17           20 upper     multiple  multi credit
     6          87.5           35           40 upper     multiple  multi credit
     7          88.6           39           44 upper     multiple  multi credit
     8         100             55           55 upper     single    multi credit
     9          56.9          111          195 upper     single    multi credit
    10          87.0           40           46 upper     single    multi credit
    # … with 453 more rows
…
## `arrange()`

-   Demo: Let's arrange the data by score, so the courses with the lowest scores will be at the top of the data frame.

<!-- -->

    evals |>
      arrange(score)

    # A tibble: 463 × 23
       course_id prof_id score rank     ethni…¹ gender langu…²   age cls_p…³ cls_d…⁴
           <dbl>   <dbl> <dbl> <chr>    <chr>   <chr>  <chr>   <dbl>   <dbl>   <dbl>
     1       162      30   2.3 tenure … not mi… female english    41    83.3      10
     2       335      68   2.4 tenured  not mi… male   english    60    71.9      23
     3        40       8   2.5 tenured  not mi… female english    51    80        24
     4       337      68   2.5 tenured  not mi… male   english    60    62.5      10
     5       329      66   2.7 tenured  not mi… male   english    64    81.8      18
     6       376      76   2.7 tenured  minori… female english    43    48.9      93
     7         7       2   2.8 tenured  not mi… male   english    59    88.6      39
     8       185      34   2.8 tenure … minori… female english    47    92.3      24
     9       434      88   2.8 tenured  not mi… male   english    62    40.9      61
    10        79      15   2.9 tenure … not mi… female english    37    82.1      23
    # … with 453 more rows, 13 more variables: cls_students <dbl>, cls_level <chr>,
    #   cls_profs <chr>, cls_credits <chr>, bty_f1lower <dbl>, bty_f1upper <dbl>,
    #   bty_f2upper <dbl>, bty_m1lower <dbl>, bty_m1upper <dbl>, bty_m2upper <dbl>,
    #   bty_avg <dbl>, pic_outfit <chr>, pic_color <chr>, and abbreviated variable
    #   names ¹​ethnicity, ²​language, ³​cls_perc_eval, ⁴​cls_did_eval

-   Demo: Now let's arrange the data by descending score, so the evals with the highest scores will be at the top.

<!-- -->

    evals |>
      arrange(desc(score))

    # A tibble: 463 × 23
       course_id prof_id score rank     ethni…¹ gender langu…²   age cls_p…³ cls_d…⁴
           <dbl>   <dbl> <dbl> <chr>    <chr>   <chr>  <chr>   <dbl>   <dbl>   <dbl>
     1        54      10     5 teaching not mi… male   english    47    90.9      10
     2        57      10     5 teaching not mi… male   english    47    83.3      15
     3        59      10     5 teaching not mi… male   english    47    80        16
     4       103      19     5 tenured  not mi… female english    46    93.3      14
     5       108      19     5 tenured  not mi… female english    46   100        15
     6       349      71     5 teaching minori… male   english    50    90.9      20
     7       356      71     5 teaching minori… male   english    50    95.2      20
     8       406      82     5 tenured  not mi… male   english    57    40         6
     9       420      85     5 teaching not mi… male   english    58   100        21
    10       421      85     5 teaching not mi… male   english    58    85.7      18
    # … with 453 more rows, 13 more variables: cls_students <dbl>, cls_level <chr>,
    #   cls_profs <chr>, cls_credits <chr>, bty_f1lower <dbl>, bty_f1upper <dbl>,
    #   bty_f2upper <dbl>, bty_m1lower <dbl>, bty_m1upper <dbl>, bty_m2upper <dbl>,
    #   bty_avg <dbl>, pic_outfit <chr>, pic_color <chr>, and abbreviated variable
    #   names ¹​ethnicity, ²​language, ³​cls_perc_eval, ⁴​cls_did_eval
…
    # A tibble: 1 × 3
      score rank     bty_avg
      <dbl> <chr>      <dbl>
    1     5 teaching    7.83

## `filter()`

-   Demo: Filter the data frame by selecting the rows where the faculty is on the teaching-track.

<!-- -->

    evals |>
      filter(rank == "teaching")

    # A tibble: 102 × 23
       course_id prof_id score rank     ethni…¹ gender langu…²   age cls_p…³ cls_d…⁴
           <dbl>   <dbl> <dbl> <chr>    <chr>   <chr>  <chr>   <dbl>   <dbl>   <dbl>
     1        50      10   4   teaching not mi… male   english    47    84.2      16
     2        51      10   4.3 teaching not mi… male   english    47    75        12
     3        52      10   4.4 teaching not mi… male   english    47    93.3      14
     4        53      10   4.5 teaching not mi… male   english    47    95.7      22
     5        54      10   5   teaching not mi… male   english    47    90.9      10
     6        55      10   4.9 teaching not mi… male   english    47    58.6      17
     7        56      10   4.6 teaching not mi… male   english    47    76.2      16
     8        57      10   5   teaching not mi… male   english    47    83.3      15
     9        58      10   4.7 teaching not mi… male   english    47    84.2      16
    10        59      10   5   teaching not mi… male   english    47    80        16
    # … with 92 more rows, 13 more variables: cls_students <dbl>, cls_level <chr>,
    #   cls_profs <chr>, cls_credits <chr>, bty_f1lower <dbl>, bty_f1upper <dbl>,
    #   bty_f2upper <dbl>, bty_m1lower <dbl>, bty_m1upper <dbl>, bty_m2upper <dbl>,
    #   bty_avg <dbl>, pic_outfit <chr>, pic_color <chr>, and abbreviated variable
    #   names ¹​ethnicity, ²​language, ³​cls_perc_eval, ⁴​cls_did_eval

-   Demo: We can also filter using more than one condition. Here we select all rows where the faculty is teaching-track and the evaluation score is greater than 3.5

<!-- -->

    evals |>
      filter(rank == "teaching", score > 3.5)

    # A tibble: 87 × 23
       course_id prof_id score rank     ethni…¹ gender langu…²   age cls_p…³ cls_d…⁴
           <dbl>   <dbl> <dbl> <chr>    <chr>   <chr>  <chr>   <dbl>   <dbl>   <dbl>
     1        50      10   4   teaching not mi… male   english    47    84.2      16
     2        51      10   4.3 teaching not mi… male   english    47    75        12
     3        52      10   4.4 teaching not mi… male   english    47    93.3      14
     4        53      10   4.5 teaching not mi… male   english    47    95.7      22
     5        54      10   5   teaching not mi… male   english    47    90.9      10
     6        55      10   4.9 teaching not mi… male   english    47    58.6      17
     7        56      10   4.6 teaching not mi… male   english    47    76.2      16
     8        57      10   5   teaching not mi… male   english    47    83.3      15
     9        58      10   4.7 teaching not mi… male   english    47    84.2      16
    10        59      10   5   teaching not mi… male   english    47    80        16
    # … with 77 more rows, 13 more variables: cls_students <dbl>, cls_level <chr>,
    #   cls_profs <chr>, cls_credits <chr>, bty_f1lower <dbl>, bty_f1upper <dbl>,
    #   bty_f2upper <dbl>, bty_m1lower <dbl>, bty_m1upper <dbl>, bty_m2upper <dbl>,
    #   bty_avg <dbl>, pic_outfit <chr>, pic_color <chr>, and abbreviated variable
    #   names ¹​ethnicity, ²​language, ³​cls_perc_eval, ⁴​cls_did_eval
…
Use `mutate()` to create a new variable.

-   Demo: In the code chunk below, we calculate difference in the average beauty ratings by gender of the rater (`bty_f*` vs `bty_m*`).

<!-- -->

    evals |>
      mutate(
        bty_avg_f = (bty_f1lower + bty_f1upper + bty_f2upper) / 3,
        bty_avg_m = (bty_m1lower + bty_m1upper + bty_m2upper) / 3,
        bty_avg_diff = bty_avg_f - bty_avg_m
      ) |>
      select(score, bty_avg_f, bty_avg_m, bty_avg_diff)

    # A tibble: 463 × 4
       score bty_avg_f bty_avg_m bty_avg_diff
       <dbl>     <dbl>     <dbl>        <dbl>
     1   4.7      6         4           2    
     2   4.1      6         4           2    
     3   3.9      6         4           2    
     4   4.8      6         4           2    
     5   4.6      3.33      2.67        0.667
     6   4.3      3.33      2.67        0.667
     7   2.8      3.33      2.67        0.667
     8   4.1      4         2.67        1.33 
     9   3.4      4         2.67        1.33 
    10   4.5      3.67      2.67        1    
    # … with 453 more rows
…
## `group_by()`

`group_by()` is used for grouped operations. It's very powerful when paired with `summarize()` to calculate summary statistics by group.

Here we find the mean and standard deviation of evaluation scores for each professor in the sample.

    evals |>
      group_by(prof_id) |>
      summarize(
        mean_score = mean(score, na.rm = TRUE),
        sd_score = sd(score, na.rm = TRUE)
      )

    # A tibble: 94 × 3
       prof_id mean_score sd_score
         <dbl>      <dbl>    <dbl>
     1       1       4.38    0.443
     2       2       3.9     0.964
     3       3       3.75    0.495
     4       4       4.3     0.321
     5       5       4.67    0.151
     6       6       4.63    0.180
     7       7       4.1     0.354
     8       8       4       0.766
     9       9       4.61    0.177
    10      10       4.64    0.344
    # … with 84 more rows
…
<!-- -->

    evals |>
      # drop rows with NAs for score
      drop_na(score) |>
      # create required variable
      mutate(
        bty_avg_f = (bty_f1lower + bty_f1upper + bty_f2upper) / 3,
        bty_avg_m = (bty_m1lower + bty_m1upper + bty_m2upper) / 3,
        bty_avg_diff = bty_avg_f - bty_avg_m
      ) |>
      # keep only requested columns
      select(prof_id, score, rank, age, bty_avg, bty_avg_diff)

    # A tibble: 449 × 6
       prof_id score rank           age bty_avg bty_avg_diff
         <dbl> <dbl> <chr>        <dbl>   <dbl>        <dbl>
     1       1   4.7 tenure track    36    5           2    
     2       1   4.1 tenure track    36    5           2    
     3       1   3.9 tenure track    36    5           2    
     4       1   4.8 tenure track    36    5           2    
     5       2   4.6 tenured         59    3           0.667
     6       2   4.3 tenured         59    3           0.667
     7       2   2.8 tenured         59    3           0.667
     8       3   4.1 tenured         51    3.33        1.33 
     9       3   3.4 tenured         51    3.33        1.33 
    10       4   4.5 tenured         40    3.17        1    
    # … with 439 more rows
…
## Pivoting

-   **Demo:** Pivot the `cornell_deg` data frame *longer* such that each row represents a field of study / year combination and `year` and `n`umber of graduates for that year are columns in the data frame.

<!-- -->

    cornell_deg |>
      pivot_longer(
        cols = -field_of_study,
        names_to = "year",
        values_to = "pct"
      )

    # A tibble: 120 × 3
       field_of_study                           year    pct
       <chr>                                    <chr> <dbl>
     1 academics.program_percentage.engineering 2001  0.239
     2 academics.program_percentage.engineering 2002  0.290
     3 academics.program_percentage.engineering 2003  0.173
     4 academics.program_percentage.engineering 2004  0.161
     5 academics.program_percentage.engineering 2005  0.168
     6 academics.program_percentage.engineering 2006  0.170
     7 academics.program_percentage.engineering 2007  0.181
     8 academics.program_percentage.engineering 2008  0.183
     9 academics.program_percentage.engineering 2009  0.181
    10 academics.program_percentage.engineering 2010  0.179
    # … with 110 more rows
…
It's a character (`chr`) variable since the information came from the columns of the original data frame and R cannot know that these character strings represent years. The variable type should be numeric.

-   **Demo:** Start over with pivoting, and this time also make sure `year` is a numerical variable in the resulting data frame.

<!-- -->

    cornell_deg |>
      pivot_longer(
        cols = -field_of_study,
        names_to = "year",
        names_transform = parse_number,
        values_to = "pct"
      )

    # A tibble: 120 × 3
       field_of_study                            year   pct
       <chr>                                    <dbl> <dbl>
     1 academics.program_percentage.engineering  2001 0.239
     2 academics.program_percentage.engineering  2002 0.290
     3 academics.program_percentage.engineering  2003 0.173
     4 academics.program_percentage.engineering  2004 0.161
     5 academics.program_percentage.engineering  2005 0.168
     6 academics.program_percentage.engineering  2006 0.170
     7 academics.program_percentage.engineering  2007 0.181
     8 academics.program_percentage.engineering  2008 0.183
     9 academics.program_percentage.engineering  2009 0.181
    10 academics.program_percentage.engineering  2010 0.179
    # … with 110 more rows
…
        names_transform = parse_number,
        values_to = "pct"
      ) |>
      separate(col = field_of_study, into = c(NA, NA, "field"), sep = "\\.") |>
      mutate(
        field = str_replace(string = field, pattern = "_", replacement = " "),
        field = str_to_title(string = field),
        field = fct_relevel(
          field, "Engineering", "Business Marketing", "Computer",
          "Biological", "Agriculture", "Social Science"
        )
      ) |>
      relocate(field)

    # A tibble: 120 × 3
       field        year   pct
       <fct>       <dbl> <dbl>
     1 Engineering  2001 0.239
     2 Engineering  2002 0.290
     3 Engineering  2003 0.173
     4 Engineering  2004 0.161
     5 Engineering  2005 0.168
     6 Engineering  2006 0.170
     7 Engineering  2007 0.181
     8 Engineering  2008 0.183
     9 Engineering  2009 0.181
    10 Engineering  2010 0.179
    # … with 110 more rows
…
    cr_reviews <- read_csv(file = "data/cornell-review-all.csv")

    Rows: 100 Columns: 6
    ── Column specification ────────────────────────────────────────────────────────
    Delimiter: ","
    chr  (5): title, author, topic, abstract, url
    date (1): date

    ℹ Use `spec()` to retrieve the full column specification for this data.
    ℹ Specify the column types or set `show_col_types = FALSE` to quiet this message.

    cr_reviews

    # A tibble: 100 × 6
       title                                   author date       topic abstr…¹ url  
       <chr>                                   <chr>  <date>     <chr> <chr>   <chr>
     1 University Assembly Approves Plan B Ve… Rodge… 2023-02-27 Camp… "At th… http…
     2 University Assembly Considers TCAT, Pl… Rodge… 2023-02-26 Camp… "On Fe… http…
     3 Cornell Law Professor Launches Equal P… Samue… 2023-02-26 Beyo… "\"Our… http…
     4 LETTER TO THE EDITOR | Re: Does Zoning… Sandr… 2023-02-26 Beyo… "Simpl… http…
     5 Cornell Throws TCAT Under the Bus       Rodge… 2023-02-25 Camp… "The U… http…
     6 Guest Essay: Cornell Must Apologize fo… Avery… 2023-02-25 Camp… "The a… http…
     7 Pearl Lucas Stood Up For Truth          Revie… 2023-02-23 Beyo… "Pearl… http…
     8 Richard Ford Addresses Diversity vs. R… Revie… 2023-02-23 Camp… "Ford … http…
     9 OPINION: Bring Back the Books and Boats Rodge… 2023-02-22 Opin… "The m… http…
    10 A Freshman Dorm is no place for “Sex i… Culle… 2023-02-21 Camp… "It’s … http…
    # … with 90 more rows, and abbreviated variable name ¹​abstract
…
